Raster Deepdive: Tasks
…
forest_are_per_canton

# A tibble: 26 × 2
   percentual_forest_cover name                  
                     <dbl> <chr>                 
 1                    42.5 Ticino                
 2                    42.0 Schaffhausen          
 3                    40.5 Solothurn             
 4                    40.1 Jura                  
 5                    39.1 Basel-Landschaft      
 6                    35.4 Obwalden              
 7                    34.9 Aargau                
 8                    34.2 Neuchâtel             
 9                    31.6 Appenzell Ausserrhoden
10                    30.3 Nidwalden             
# ℹ 16 more rows
…
